{
    "database": {
        "logging": true,
        "database": "db_name",
        "username": "test_user",
        "password": "test_user",
        "host": "localhost",
        "port": 3306,
        "dialect": "mysql",
        "pool": {
            "max": 5,
            "min": 0,
            "acquire": 30000,
            "idle": 10000
        },
        "define": {
            "underscored": true,
            "timestamps": false
        }
    },
    "http_server": {
        "http_port": 3000
    },
    "log4js": {
        "appenders": {
            "out": {
                "type": "stdout"
            }
        },
        "categories": {
            "default": {
                "appenders": [
                    "out"
                ],
                "level": "debug"
            }
        }
    },
    "DbManager": {
        "Init": {
            "force": true
        },
        "SetTestData": true
    },
    "bcrypt": {
        "rounds": 10
    },
    "passport": {
        "secret": "someDefaultSecret"
    }
}